<svg width="19" height="19" viewBox="0 0 19 19" fill="none" xmlns="http://www.w3.org/2000/svg">
<path d="M6.05039 0.785156H13.2504C16.2327 0.785156 18.6504 3.1979 18.6504 6.17417V13.3595C18.6504 16.3358 16.2327 18.7485 13.2504 18.7485H6.05039C3.06805 18.7485 0.650391 16.3358 0.650391 13.3595V6.17417C0.650391 3.1979 3.06805 0.785156 6.05039 0.785156ZM6.05039 2.5815C4.06217 2.5815 2.45039 4.18999 2.45039 6.17417V13.3595C2.45039 15.3437 4.06217 16.9522 6.05039 16.9522H13.2504C15.2386 16.9522 16.8504 15.3437 16.8504 13.3595V6.17417C16.8504 4.18999 15.2386 2.5815 13.2504 2.5815H6.05039ZM9.65039 14.2577C7.16511 14.2577 5.15039 12.2471 5.15039 9.76685C5.15039 7.28663 7.16511 5.276 9.65039 5.276C12.1357 5.276 14.1504 7.28663 14.1504 9.76685C14.1504 12.2471 12.1357 14.2577 9.65039 14.2577ZM9.65039 12.4614C11.1416 12.4614 12.3504 11.255 12.3504 9.76685C12.3504 8.27872 11.1416 7.07234 9.65039 7.07234C8.15922 7.07234 6.95039 8.27872 6.95039 9.76685C6.95039 11.255 8.15922 12.4614 9.65039 12.4614ZM14.1504 6.17417C13.6533 6.17417 13.2504 5.77205 13.2504 5.276C13.2504 4.77996 13.6533 4.37783 14.1504 4.37783C14.6474 4.37783 15.0504 4.77996 15.0504 5.276C15.0504 5.77205 14.6474 6.17417 14.1504 6.17417Z" fill="white"/>
</svg>
