<svg width="18" height="17" viewBox="0 0 18 17" fill="none" xmlns="http://www.w3.org/2000/svg">
    <path d="M12.5156 13.5L9 11.3906L5.48438 13.5L6.42188 9.47656L3.29688 6.78125L7.39844 6.46875L9 2.67969L10.6016 6.42969L14.7031 6.78125L11.5781 9.47656L12.5156 13.5ZM9 0.179688C6.63021 0.231771 4.66406 1.05208 3.10156 2.64062C1.53906 4.20312 0.731771 6.15625 0.679688 8.5C0.731771 10.8698 1.53906 12.8359 3.10156 14.3984C4.66406 15.9609 6.63021 16.7682 9 16.8203C11.3698 16.7682 13.3359 15.9609 14.8984 14.3984C16.4609 12.8359 17.2682 10.8698 17.3203 8.5C17.2682 6.13021 16.4609 4.16406 14.8984 2.60156C13.3359 1.03906 11.3698 0.231771 9 0.179688Z" fill="white"/>
</svg>
